{
  "romance": [
    {
      "id": 1,
      "nombre": "Orgullo y prejuicio",
      "autor": "Jane Austen"
    },
    {
      "id": 2,
      "nombre": "El ruiseñor",
      "autor": "Kristin Hannah"
    },
    {
      "nombre": "Edenbrooke",
      "autor": "Julianne Donaldson",
      "id": 3
    },
    {
      "nombre": "Nosotros en la luna",
      "autor": "Alice Kellen",
      "id": 4
    },
    {
      "nombre": "El jinete de bronce",
      "autor": "Paullina Simons",
      "id": 5
    },
    {
      "nombre": "Llámame por tu nombre",
      "autor": "James Ivory",
      "id": 6
    },
    {
      "nombre": "Forastera (Saga Outlander)",
      "autor": "Diana Gabaldon",
      "id": 7
    },
    {
      "nombre": "Rayuela",
      "autor": "Julio Cortázar",
      "id": 8
    },
    {
      "nombre": "Lo que el viento se llevó",
      "autor": "Margaret Mitchell",
      "id": 9
    },
    {
      "nombre": "Bajo la misma estrella",
      "autor": "John Green",
      "id": 10
    }
  ],
  "comedia": [
    {
      "id": 1,
      "nombre": "Memorias de un amante sarnoso",
      "autor": "Groucho Marx"
    },
    {
      "id": 2,
      "nombre": "La taberna errante",
      "autor": "G.K. Chesterton"
    },
    {
      "nombre": "Mi familia y otros animales",
      "autor": "Gerald Durrell",
      "id": 3
    },
    {
      "nombre": "¡Noticia bomba!",
      "autor": "Evelyn Waugh",
      "id": 4
    },
    {
      "nombre": "Wilt",
      "autor": "Tom Sharpe",
      "id": 5
    }
  ],
  "terror": [
    {
      "id": 1,
      "nombre": "Siempre hemos vivido en el castillo",
      "autor": "Shirley Jackson"
    },
    {
      "id": 2,
      "nombre": "La tienda",
      "autor": "Stephen King"
    },
    {
      "nombre": "Frankenstein",
      "autor": "Mary Shelley",
      "id": 3
    },
    {
      "nombre": "Drácula",
      "autor": "Bram Stoker",
      "id": 4
    },
    {
      "nombre": "Entrevista con el vampiro",
      "autor": "Anne Rice",
      "id": 5
    },
    {
      "nombre": "La llamada de Cthulhu",
      "autor": "H. P. Lovecraft",
      "id": 6
    },
    {
      "nombre": "La mujer de negro",
      "autor": "Susan Hill",
      "id": 7
    },
    {
      "nombre": "La torre de los siete jorobados",
      "autor": "Emilio Carrere",
      "id": 8
    }
  ]
}